<svg width="63" height="104" viewBox="0 0 63 104" fill="none" xmlns="http://www.w3.org/2000/svg">
<path d="M9.51281 63.2193C9.511 63.026 9.35284 62.8708 9.15954 62.8726C8.96625 62.8744 8.81103 63.0326 8.81284 63.2258L9.51281 63.2193ZM9.1057 94.4694C9.10751 94.6627 9.26567 94.8179 9.45896 94.8161C9.65226 94.8143 9.80748 94.6561 9.80567 94.4628L9.1057 94.4694ZM6.98951 93.9438C6.99144 94.1371 7.1497 94.2922 7.34299 94.2903C7.53628 94.2884 7.6914 94.1301 7.68947 93.9368L6.98951 93.9438ZM6.791 39.0571L6.8454 38.7114C6.74371 38.6954 6.64013 38.7249 6.56223 38.7922C6.48432 38.8595 6.43999 38.9577 6.44102 39.0606L6.791 39.0571ZM8.93946 39.3951L9.28944 39.3918C9.28784 39.2208 9.16283 39.076 8.99386 39.0494L8.93946 39.3951ZM8.79795 61.5945C8.79976 61.7878 8.95793 61.943 9.15122 61.9412C9.34451 61.9394 9.49973 61.7812 9.49792 61.5879L8.79795 61.5945ZM44.6807 56.8891L45.0306 56.8942C45.0332 56.7163 44.902 56.5648 44.7256 56.542L44.6807 56.8891ZM44.3986 76.4251L44.336 76.7695C44.4372 76.7879 44.5414 76.7608 44.6209 76.6954C44.7004 76.6301 44.747 76.533 44.7485 76.4302L44.3986 76.4251ZM36.3631 74.9652L36.0652 74.7815C36.0045 74.88 35.9964 75.0021 36.0435 75.1077C36.0905 75.2134 36.1868 75.2889 36.3006 75.3096L36.3631 74.9652ZM37.1797 73.0873L37.5172 73.1798L37.5175 73.1789L37.1797 73.0873ZM37.4188 71.2911H37.0688V71.2912L37.4188 71.2911ZM16.7135 9.00154C16.7135 8.80824 16.5568 8.65154 16.3635 8.65154C16.1702 8.65154 16.0135 8.80824 16.0135 9.00154H16.7135ZM16.3635 19.9669H16.0135H16.3635ZM5.93972 19.9669H6.28972H5.93972ZM6.28972 9.00154C6.28972 8.80824 6.13302 8.65154 5.93972 8.65154C5.74642 8.65154 5.58972 8.80824 5.58972 9.00154H6.28972ZM5.58972 7.64944C5.58972 7.84274 5.74642 7.99944 5.93972 7.99944C6.13302 7.99944 6.28972 7.84274 6.28972 7.64944H5.58972ZM5.93972 3.96383L6.28279 3.89452C6.24718 3.71827 6.08381 3.59768 5.90489 3.61557C5.72597 3.63347 5.58972 3.78402 5.58972 3.96383H5.93972ZM16.3635 3.96383V3.61383C16.1979 3.61383 16.0549 3.72992 16.021 3.89202L16.3635 3.96383ZM16.3677 3.96383H16.7177C16.7177 3.77053 16.561 3.61383 16.3677 3.61383V3.96383ZM16.0177 7.64944C16.0177 7.84274 16.1744 7.99944 16.3677 7.99944C16.561 7.99944 16.7177 7.84274 16.7177 7.64944H16.0177ZM16.3635 3.92301L16.7135 3.92567V3.92301H16.3635ZM16.3594 3.96383L16.7025 4.03315L16.7028 4.03141L16.3594 3.96383ZM5.94386 3.96383L5.59537 3.99631C5.59651 4.00857 5.5983 4.02077 5.60073 4.03285L5.94386 3.96383ZM5.94386 3.92301L6.29235 3.95548C6.29335 3.94469 6.29386 3.93385 6.29386 3.92301H5.94386ZM54.9291 10.1838L54.8523 9.84233L54.852 9.84239L54.9291 10.1838ZM41.0944 9.23097L41.4375 9.16178L41.4368 9.15833L41.0944 9.23097ZM41.0878 9.16892H40.7378L40.7378 9.1701L41.0878 9.16892ZM43.2405 8.46613C43.4296 8.42585 43.5502 8.23994 43.5099 8.05088C43.4696 7.86182 43.2837 7.74122 43.0946 7.7815L43.2405 8.46613ZM54.8639 7.7815C54.6748 7.74122 54.4889 7.86182 54.4486 8.05088C54.4083 8.23994 54.5289 8.42585 54.718 8.46613L54.8639 7.7815ZM56.8715 9.16892L57.2215 9.17076V9.16892H56.8715ZM56.8649 9.23097L56.5224 9.15897L56.5219 9.1616L56.8649 9.23097ZM57.2081 10.5948C57.2461 10.4052 57.1233 10.2208 56.9338 10.1828C56.7443 10.1447 56.5598 10.2675 56.5218 10.4571L57.2081 10.5948ZM41.0952 10.5259L40.7452 10.5261C40.7452 10.5493 40.7475 10.5724 40.7521 10.5951L41.0952 10.5259ZM16.4231 7.99433C16.6136 7.96144 16.7413 7.78035 16.7084 7.58987C16.6755 7.39939 16.4944 7.27165 16.304 7.30455L16.4231 7.99433ZM3.26676 6.55127L3.60987 6.48208L3.60914 6.47863L3.26676 6.55127ZM3.26014 6.48922H2.91014H3.26014ZM5.9992 5.6739C6.18969 5.64106 6.31748 5.46001 6.28463 5.26952C6.25178 5.07903 6.07073 4.95124 5.88024 4.98409L5.9992 5.6739ZM16.423 4.98245C16.2325 4.9496 16.0515 5.0774 16.0186 5.26789C15.9858 5.45837 16.1136 5.63942 16.304 5.67227L16.423 4.98245ZM19.0431 6.48758L19.3931 6.4954V6.48758H19.0431ZM19.0348 6.55209L18.6941 6.47133L18.6918 6.48257L19.0348 6.55209ZM16.3024 7.30534C16.1119 7.33816 15.9841 7.51919 16.0169 7.70969C16.0498 7.90018 16.2308 8.028 16.4213 7.99517L16.3024 7.30534ZM17.2219 56.8904C17.0454 56.9692 16.9661 57.1761 17.0449 57.3526C17.1237 57.5291 17.3307 57.6084 17.5072 57.5296L17.2219 56.8904ZM18.1334 57.2901C18.3174 57.231 18.4187 57.0339 18.3596 56.8498C18.3005 56.6658 18.1034 56.5645 17.9193 56.6236L18.1334 57.2901ZM17.3675 59.3043C17.5457 59.3794 17.7509 59.2958 17.826 59.1177C17.9011 58.9396 17.8176 58.7343 17.6395 58.6592L17.3675 59.3043ZM16.4702 58.1538L16.1267 58.2209L16.1276 58.2252L16.4702 58.1538ZM16.4611 58.0673H16.1111L16.1112 58.0731L16.4611 58.0673ZM17.507 57.5306C17.6832 57.4509 17.7614 57.2436 17.6818 57.0675C17.6022 56.8913 17.3949 56.8131 17.2187 56.8927L17.507 57.5306ZM30.3038 60.5021C30.4968 60.4923 30.6453 60.3278 30.6354 60.1347C30.6256 59.9417 30.4611 59.7932 30.268 59.803L30.3038 60.5021ZM17.6414 58.6587C17.463 58.5843 17.2581 58.6687 17.1838 58.8471C17.1094 59.0256 17.1938 59.2305 17.3722 59.3048L17.6414 58.6587ZM37.3706 59.4008C37.5488 59.326 37.6326 59.1208 37.5578 58.9426C37.483 58.7644 37.2778 58.6806 37.0996 58.7554L37.3706 59.4008ZM33.5111 59.5471C33.3191 59.5702 33.1823 59.7445 33.2054 59.9364C33.2284 60.1283 33.4027 60.2652 33.5946 60.2421L33.5111 59.5471ZM42.8176 10.2148C42.8176 10.4081 42.9743 10.5648 43.1676 10.5648C43.3609 10.5648 43.5176 10.4081 43.5176 10.2148H42.8176ZM43.5176 6.12752C43.5176 5.93422 43.3609 5.77752 43.1676 5.77752C42.9743 5.77752 42.8176 5.93422 42.8176 6.12752H43.5176ZM43.5176 11.509C43.5176 11.3157 43.3609 11.159 43.1676 11.159C42.9743 11.159 42.8176 11.3157 42.8176 11.509H43.5176ZM55.1409 11.522C55.1409 11.3287 54.9842 11.172 54.7909 11.172C54.5976 11.172 54.4409 11.3287 54.4409 11.522H55.1409ZM54.7868 6.12752L54.445 6.0518L54.4437 6.05836L54.7868 6.12752ZM54.7909 6.12752H55.1409C55.1409 5.93422 54.9842 5.77752 54.7909 5.77752V6.12752ZM54.4409 10.1838C54.4409 10.3771 54.5976 10.5338 54.7909 10.5338C54.9842 10.5338 55.1409 10.3771 55.1409 10.1838H54.4409ZM54.7909 6.08179H54.4409V6.08243L54.7909 6.08179ZM43.1758 6.12752L42.8322 6.19409L42.8327 6.19667L43.1758 6.12752ZM43.1709 6.08179H42.8208L42.821 6.0905L43.1709 6.08179ZM48.3795 29.6831V29.3331H48.0295V29.6831H48.3795ZM49.5377 29.6831H49.8877V29.3331H49.5377V29.6831ZM49.5377 83.9792V84.3292H49.8877V83.9792H49.5377ZM48.3795 83.9792H48.0295V84.3292H48.3795V83.9792ZM37.2029 74.0871C37.3036 73.9221 37.2516 73.7067 37.0867 73.6059C36.9217 73.5052 36.7063 73.5572 36.6055 73.7221L37.2029 74.0871ZM35.0537 75.6439C34.8833 75.7352 34.8192 75.9473 34.9105 76.1177C35.0018 76.288 35.2139 76.3522 35.3843 76.2608L35.0537 75.6439ZM33.7259 46.3134C33.5591 46.2156 33.3447 46.2714 33.2469 46.4382C33.149 46.6049 33.2049 46.8193 33.3716 46.9172L33.7259 46.3134ZM37.1797 51.4366L37.5175 51.345L37.5174 51.3449L37.1797 51.4366ZM37.4188 53.2329L37.0688 53.2328V53.2329H37.4188ZM17.7591 63.1099C17.7591 63.3032 17.9158 63.4599 18.1091 63.4599C18.3024 63.4599 18.4591 63.3032 18.4591 63.1099H17.7591ZM18.1091 53.2304H18.4591V53.2303L18.1091 53.2304ZM18.3482 51.4342L18.686 51.5258L18.686 51.5257L18.3482 51.4342ZM27.7635 45.1538V45.5038H27.7641L27.7635 45.1538ZM30.7468 45.9097C30.933 45.9617 31.1261 45.853 31.1781 45.6668C31.2301 45.4807 31.1214 45.2876 30.9352 45.2355L30.7468 45.9097ZM21.2478 77.2489H21.5978C21.5978 77.14 21.5471 77.0373 21.4606 76.971L21.2478 77.2489ZM18.3523 73.0849L18.6903 72.9939L18.6901 72.9933L18.3523 73.0849ZM18.1132 71.2886L18.4632 71.2887V71.2886H18.1132ZM18.4632 64.9666C18.4632 64.7733 18.3065 64.6166 18.1132 64.6166C17.9199 64.6166 17.7632 64.7733 17.7632 64.9666H18.4632ZM9.23281 61.2469C9.04262 61.2123 8.86044 61.3385 8.8259 61.5287C8.79136 61.7189 8.91754 61.9011 9.10773 61.9356L9.23281 61.2469ZM30.7785 65.871C30.9687 65.9056 31.1508 65.7794 31.1854 65.5892C31.2199 65.399 31.0937 65.2169 30.9035 65.1823L30.7785 65.871ZM26.8377 66.8547C27.0277 66.8899 27.2104 66.7644 27.2456 66.5744C27.2809 66.3843 27.1554 66.2017 26.9653 66.1664L26.8377 66.8547ZM9.23409 62.8784C9.04403 62.8432 8.86138 62.9687 8.82614 63.1587C8.79089 63.3488 8.9164 63.5315 9.10646 63.5667L9.23409 62.8784ZM3.36692 3.39964C3.36692 3.20634 3.21022 3.04964 3.01692 3.04964C2.82362 3.04964 2.66692 3.20634 2.66692 3.39964H3.36692ZM57.6037 5.97565L57.2537 5.97466V5.97565H57.6037ZM59.6214 7.91725V8.26725H59.9714V7.91725H59.6214ZM59.6214 5.78133H59.9714V5.43133H59.6214V5.78133ZM58.5724 5.78133H58.2224V6.13133H58.5724V5.78133ZM50.8944 4.88728L50.5445 4.89675L50.5531 5.21281L50.8684 5.23631L50.8944 4.88728ZM51.749 4.95096L51.723 5.29999L52.0695 5.32582L52.0978 4.97949L51.749 4.95096ZM52.2114 4.05283L52.0018 3.77261L52.0014 3.7729L52.2114 4.05283ZM53.1579 3.73522V3.38521L53.1555 3.38523L53.1579 3.73522ZM57.6053 5.39186L57.9553 5.39285V5.39186H57.6053ZM31.2473 80.3209C31.247 80.1276 31.0901 79.9711 30.8968 79.9714C30.7035 79.9716 30.547 80.1285 30.5473 80.3218L31.2473 80.3209ZM30.5737 99.4137C30.574 99.607 30.7309 99.7635 30.9242 99.7632C31.1175 99.7629 31.274 99.606 31.2737 99.4127L30.5737 99.4137ZM30.5258 65.5272C30.526 65.7205 30.683 65.877 30.8763 65.8767C31.0696 65.8764 31.226 65.7195 31.2258 65.5262L30.5258 65.5272ZM30.841 42.0936L30.8738 41.7451C30.7756 41.7359 30.6781 41.7685 30.6052 41.835C30.5323 41.9014 30.4909 41.9955 30.491 42.0941L30.841 42.0936ZM32.5783 42.2569L32.9283 42.2564C32.928 42.076 32.7907 41.9253 32.6111 41.9084L32.5783 42.2569ZM32.3119 99.724C32.3121 99.9173 32.4691 100.074 32.6624 100.073C32.8557 100.073 33.0121 99.9162 33.0119 99.7229L32.3119 99.724ZM3.01692 33.6724H2.66692V33.7938L2.74204 33.8891L3.01692 33.6724ZM3.02271 33.6797L2.74783 33.8964L2.83413 34.0059L2.97207 34.0261L3.02271 33.6797ZM48.3803 40.312H48.7303V40.0095L48.4309 39.9657L48.3803 40.312ZM48.3803 41.1971L48.3297 41.5434L48.7303 41.6019V41.1971H48.3803ZM21.2892 37.2412L21.2207 37.5845L21.2296 37.5863L21.2386 37.5876L21.2892 37.2412ZM21.1295 37.2094L21.198 36.8662L21.1891 36.8644L21.1802 36.8631L21.1295 37.2094ZM2.04983 34.417H1.69983V34.7195L1.99914 34.7633L2.04983 34.417ZM2.04983 5.97238H2.39983V5.62238H2.04983V5.97238ZM1 5.97238H0.65V6.32238H1V5.97238ZM1 3.83565V3.48565H0.65V3.83565H1ZM2.04983 3.83565V4.18565H2.39983V3.83565H2.04983ZM4.04937 1V0.65V1ZM9.72786 2.9416L9.75387 3.29063L10.0692 3.26713L10.0777 2.95107L9.72786 2.9416ZM8.87327 3.00528L8.52444 3.03381L8.55276 3.38014L8.89929 3.35432L8.87327 3.00528ZM8.41082 2.10715L8.20015 2.38665L8.20073 2.38708L8.41082 2.10715ZM7.46441 1.78627L7.46771 1.43627H7.46441V1.78627ZM19.7091 36.9897C19.7077 36.7964 19.5499 36.6408 19.3566 36.6422C19.1633 36.6436 19.0077 36.8015 19.0091 36.9947L19.7091 36.9897ZM19.0968 49.131C19.0982 49.3243 19.256 49.4798 19.4493 49.4784C19.6426 49.477 19.7982 49.3192 19.7968 49.1259L19.0968 49.131ZM17.1543 35.7928C17.1543 35.9861 17.311 36.1428 17.5043 36.1428C17.6976 36.1428 17.8543 35.9861 17.8543 35.7928H17.1543ZM17.5043 15.6485V15.2985C17.311 15.2985 17.1543 15.4552 17.1543 15.6485H17.5043ZM19.1837 15.6485L19.5337 15.6456C19.5321 15.4535 19.3759 15.2985 19.1837 15.2985V15.6485ZM19.0017 36.0676C19.0033 36.2609 19.1613 36.4163 19.3546 36.4147C19.5478 36.4131 19.7033 36.2551 19.7017 36.0618L19.0017 36.0676ZM9.47776 92.6532C9.3103 92.7498 9.25282 92.9638 9.34937 93.1313C9.44592 93.2987 9.65994 93.3562 9.8274 93.2597L9.47776 92.6532ZM21.2478 86.2711L21.4226 86.5743C21.531 86.5118 21.5978 86.3962 21.5978 86.2711H21.2478ZM46.1896 92.9564L46.3879 93.2448C46.4817 93.1804 46.5383 93.0743 46.5396 92.9605L46.1896 92.9564ZM47.132 41.0174C47.1342 40.8241 46.9793 40.6656 46.786 40.6634C46.5927 40.6612 46.4342 40.8161 46.432 41.0094L47.132 41.0174ZM32.7621 89.7768C32.5726 89.7388 32.3881 89.8617 32.3501 90.0512C32.3121 90.2407 32.435 90.4252 32.6245 90.4632L32.7621 89.7768ZM44.0908 92.4045L44.2799 92.699C44.3999 92.6219 44.4612 92.4798 44.4347 92.3396C44.4083 92.1994 44.2994 92.0894 44.1596 92.0613L44.0908 92.4045ZM10.5035 94.377C10.3366 94.4746 10.2804 94.6889 10.3779 94.8558C10.4754 95.0227 10.6898 95.0789 10.8567 94.9814L10.5035 94.377ZM22.2397 87.9228L22.3117 87.5803C22.2267 87.5624 22.1381 87.5768 22.0631 87.6206L22.2397 87.9228ZM30.769 90.073C30.9582 90.1128 31.1438 89.9917 31.1835 89.8025C31.2233 89.6133 31.1022 89.4277 30.913 89.388L30.769 90.073ZM3.26014 7.59474H2.91006L2.91022 7.60222L3.26014 7.59474ZM3.26676 7.90418L2.91684 7.91167C2.91728 7.93228 2.91954 7.95282 2.9236 7.97303L3.26676 7.90418ZM19.0348 7.90418L18.6924 7.83154L18.6917 7.83533L19.0348 7.90418ZM19.0414 7.84213L19.3914 7.84332V7.84213H19.0414ZM19.3914 6.48922C19.3914 6.29592 19.2347 6.13922 19.0414 6.13922C18.8481 6.13922 18.6914 6.29592 18.6914 6.48922H19.3914ZM57.2207 9.23097C57.2207 9.03767 57.064 8.88097 56.8707 8.88097C56.6774 8.88097 56.5207 9.03767 56.5207 9.23097H57.2207ZM56.5207 10.5259C56.5207 10.7192 56.6774 10.8759 56.8707 10.8759C57.064 10.8759 57.2207 10.7192 57.2207 10.5259H56.5207ZM22.8875 86.12L22.5375 86.1217C22.5383 86.2882 22.6563 86.4311 22.8197 86.4634L22.8875 86.12ZM30.7732 88.0335C30.9629 88.0709 31.1469 87.9475 31.1844 87.7579C31.2218 87.5683 31.0984 87.3842 30.9088 87.3467L30.7732 88.0335ZM45.1821 40.6801C45.1838 40.4868 45.0285 40.3287 44.8352 40.327C44.6419 40.3253 44.4838 40.4806 44.4821 40.6739L45.1821 40.6801ZM44.3928 90.3486L44.3252 90.692C44.4273 90.7121 44.5332 90.6857 44.6139 90.6199C44.6946 90.5541 44.7418 90.4558 44.7428 90.3517L44.3928 90.3486ZM32.7129 87.6929C32.5233 87.6556 32.3392 87.7791 32.3019 87.9687C32.2646 88.1584 32.3881 88.3424 32.5777 88.3797L32.7129 87.6929ZM39.0849 32.486L39.4348 32.4926L39.4349 32.4924L39.0849 32.486ZM30.6789 29.403L30.3742 29.2307L30.374 29.2311L30.6789 29.403ZM31.224 34.9959L31.443 34.7226L31.4343 34.7161L31.224 34.9959ZM33.335 34.5224C33.4306 34.3543 33.3719 34.1407 33.2039 34.0451C33.0359 33.9495 32.8222 34.0082 32.7266 34.1762L33.335 34.5224ZM32.8092 29.7263C32.8894 29.9021 33.097 29.9797 33.2729 29.8994C33.4488 29.8192 33.5263 29.6116 33.4461 29.4357L32.8092 29.7263ZM29.4123 29.403L29.1076 29.2307L29.1074 29.2311L29.4123 29.403ZM30.5903 28.5196L30.5957 28.1696H30.5903V28.5196ZM30.9658 28.9945C31.123 29.1069 31.3416 29.0707 31.4541 28.9134C31.5666 28.7562 31.5303 28.5376 31.3731 28.4252L30.9658 28.9945ZM30.8185 29.061C30.6255 29.0496 30.4599 29.1969 30.4486 29.3899C30.4373 29.5828 30.5845 29.7484 30.7775 29.7598L30.8185 29.061ZM30.5376 33.5881C30.3467 33.5574 30.1671 33.6872 30.1364 33.878C30.1057 34.0689 30.2355 34.2485 30.4263 34.2792L30.5376 33.5881ZM20.8978 47.2962C20.8978 47.4895 21.0545 47.6462 21.2478 47.6462C21.4411 47.6462 21.5978 47.4895 21.5978 47.2962H20.8978ZM21.5978 37.4805C21.5978 37.2872 21.4411 37.1305 21.2478 37.1305C21.0545 37.1305 20.8978 37.2872 20.8978 37.4805H21.5978ZM23.1994 78.2409C23.1985 78.0476 23.041 77.8917 22.8477 77.8926C22.6544 77.8935 22.4985 78.051 22.4994 78.2443L23.1994 78.2409ZM19.2497 25.6814C19.0648 25.7377 18.9605 25.9333 19.0168 26.1182C19.0731 26.3031 19.2687 26.4074 19.4536 26.3511L19.2497 25.6814ZM28.5124 23.593C28.6973 23.5367 28.8016 23.3411 28.7453 23.1562C28.689 22.9713 28.4934 22.867 28.3085 22.9233L28.5124 23.593ZM19.25 27.2596C19.065 27.3158 18.9606 27.5113 19.0168 27.6962C19.073 27.8812 19.2684 27.9856 19.4534 27.9294L19.25 27.2596ZM28.9457 25.0464C29.1306 24.9902 29.235 24.7947 29.1788 24.6098C29.1227 24.4248 28.9272 24.3204 28.7422 24.3766L28.9457 25.0464ZM30.0957 80.2454C30.0957 80.0521 29.939 79.8954 29.7457 79.8954C29.5524 79.8954 29.3957 80.0521 29.3957 80.2454H30.0957ZM29.7457 84.1735H30.0957H29.7457ZM27.8644 85.6065V85.2565V85.6065ZM26.4126 84.1735H26.0626H26.4126ZM26.4126 80.0985H26.7626L26.7626 80.0976L26.4126 80.0985ZM26.7992 79.8202C26.8497 79.6336 26.7395 79.4414 26.5529 79.3908C26.3664 79.3402 26.1741 79.4505 26.1236 79.637L26.7992 79.8202ZM32.6337 80.5647L32.5868 80.9115C32.6869 80.925 32.788 80.8947 32.864 80.8282C32.9401 80.7618 32.9837 80.6657 32.9837 80.5647H32.6337ZM26.4523 79.7286L26.4992 79.3818C26.494 79.3811 26.4888 79.3805 26.4837 79.38L26.4523 79.7286ZM24.9317 77.9258L25.2802 77.9582C25.2812 77.9473 25.2817 77.9364 25.2817 77.9256L24.9317 77.9258ZM24.9251 68.017L24.5767 67.9839C24.5756 67.995 24.5751 68.0061 24.5751 68.0172L24.9251 68.017ZM26.7551 66.5187L26.8025 66.1719C26.7973 66.1712 26.7922 66.1706 26.787 66.1702L26.7551 66.5187ZM35.0147 66.1839L35.3646 66.1802C35.3634 66.0606 35.3012 65.95 35.1997 65.8868C35.0982 65.8236 34.9715 65.8166 34.8636 65.8682L35.0147 66.1839ZM35.1536 79.1146L35.328 79.4181C35.4378 79.355 35.505 79.2375 35.5036 79.1108L35.1536 79.1146ZM32.4569 80.2604C32.2893 80.3567 32.2315 80.5706 32.3278 80.7382C32.4241 80.9058 32.638 80.9636 32.8056 80.8673L32.4569 80.2604ZM43.2115 24.1679C43.3996 24.1236 43.5162 23.9351 43.4718 23.7469C43.4275 23.5588 43.239 23.4422 43.0509 23.4866L43.2115 24.1679ZM32.9953 26.2163L32.915 25.8756L32.9149 25.8756L32.9953 26.2163ZM28.5676 23.5349L28.2275 23.6176L28.2275 23.6176L28.5676 23.5349ZM28.8332 23.0158C28.8139 22.8235 28.6423 22.6832 28.45 22.7025C28.2576 22.7218 28.1174 22.8934 28.1367 23.0857L28.8332 23.0158ZM28.1367 23.08C28.156 23.2724 28.3276 23.4126 28.5199 23.3933C28.7122 23.374 28.8525 23.2024 28.8332 23.0101L28.1367 23.08ZM31.2886 19.1602L31.3688 19.5009L31.3689 19.5009L31.2886 19.1602ZM43.2115 16.7093C43.3996 16.665 43.5162 16.4765 43.4718 16.2884C43.4275 16.1002 43.239 15.9837 43.0509 16.028L43.2115 16.7093ZM29.937 34.6628C29.905 34.4722 29.7245 34.3436 29.5339 34.3756C29.3432 34.4076 29.2146 34.5881 29.2466 34.7787L29.937 34.6628ZM29.749 35.6573L29.8506 35.9922C30.019 35.9411 30.1233 35.7729 30.0942 35.5993L29.749 35.6573ZM26.0527 35.494L25.7057 35.4483C25.6875 35.5861 25.7527 35.7216 25.8717 35.7935L26.0527 35.494ZM26.7749 30.0056V29.6556C26.5993 29.6556 26.4508 29.7858 26.4279 29.9599L26.7749 30.0056ZM29.0913 30.3556C29.2846 30.3556 29.4413 30.1989 29.4413 30.0056C29.4413 29.8123 29.2846 29.6556 29.0913 29.6556V30.3556ZM24.9061 32.8477L24.9498 32.5005L24.9495 32.5005L24.9061 32.8477ZM25.1183 32.9676L24.8427 33.1834L25.1183 32.9676ZM25.1824 33.2005L24.8353 33.1554L24.8353 33.1556L25.1824 33.2005ZM24.825 33.4732L24.8689 33.1259L24.8672 33.1257L24.825 33.4732ZM5.95378 31.1111L5.91005 31.4583L5.91031 31.4584L5.95378 31.1111ZM5.67747 30.7584L6.02455 30.8035L6.02458 30.8033L5.67747 30.7584ZM6.03486 30.4857L5.99091 30.8329L5.9914 30.833L6.03486 30.4857ZM42.7729 35.5903L42.8168 35.2431L42.8167 35.2431L42.7729 35.5903ZM42.4966 35.2376L42.8437 35.2827L42.8437 35.2825L42.4966 35.2376ZM42.854 34.9649L42.8101 35.3121L42.8102 35.3121L42.854 34.9649ZM57.6037 36.8248L57.56 37.1721L57.9537 37.2217V36.8248H57.6037ZM49.5377 35.8088L49.5814 35.4616L49.1877 35.412V35.8088H49.5377ZM49.5377 36.3137H49.1877V36.6191L49.4902 36.6605L49.5377 36.3137ZM61.64 37.9704L61.5926 38.3172L61.5961 38.3176L61.64 37.9704ZM61.9974 37.6977L61.6503 37.6526L61.6503 37.6528L61.9974 37.6977ZM61.7211 37.3449L61.6773 37.6922L61.6774 37.6922L61.7211 37.3449ZM58.5658 36.9473H58.2158V37.256L58.5221 37.2946L58.5658 36.9473ZM58.5658 7.91888H58.9158V7.56947L58.5664 7.56888L58.5658 7.91888ZM61.3918 42.2373L61.4432 41.8911L61.4427 41.891L61.3918 42.2373ZM61.2636 43.0775L61.2127 43.4238L61.2141 43.424L61.2636 43.0775ZM21.6747 34.702L21.7218 34.3552L21.7184 34.3547L21.6747 34.702ZM21.3984 34.3493L21.7455 34.3944L21.7455 34.3941L21.3984 34.3493ZM21.7558 34.0766L21.8029 33.7297L21.7997 33.7293L21.7558 34.0766ZM34.8503 65.8799C34.6801 65.9716 34.6165 66.1839 34.7082 66.354C34.7999 66.5242 35.0122 66.5878 35.1823 66.4962L34.8503 65.8799ZM44.8202 61.3033C44.9904 61.2116 45.054 60.9994 44.9623 60.8292C44.8706 60.659 44.6584 60.5954 44.4882 60.6871L44.8202 61.3033ZM21.4589 76.9661C21.304 76.8504 21.0847 76.8822 20.969 77.037C20.8534 77.1919 20.8852 77.4112 21.04 77.5269L21.4589 76.9661ZM25.207 79.439C25.3957 79.4812 25.5828 79.3624 25.6249 79.1738C25.667 78.9851 25.5483 78.798 25.3596 78.7559L25.207 79.439ZM30.4811 28.1696C30.2878 28.1696 30.1311 28.3263 30.1311 28.5196C30.1311 28.7129 30.2878 28.8696 30.4811 28.8696V28.1696ZM30.4811 34.8745C30.2878 34.8745 30.1311 35.0312 30.1311 35.2245C30.1311 35.4178 30.2878 35.5745 30.4811 35.5745V34.8745ZM36.5865 103L36.5049 103.34C36.6092 103.365 36.7191 103.341 36.8032 103.275C36.8874 103.208 36.9365 103.107 36.9365 103H36.5865ZM5.33084 95.5096L4.98128 95.5271C4.98904 95.6822 5.09818 95.8137 5.24927 95.8499L5.33084 95.5096ZM5.22991 93.4921L5.31031 93.1514C5.20322 93.1261 5.09047 93.1527 5.00591 93.2231C4.92136 93.2935 4.87485 93.3996 4.88035 93.5095L5.22991 93.4921ZM36.5865 100.893H36.9365C36.9365 100.731 36.8249 100.59 36.6669 100.553L36.5865 100.893ZM35.1266 100.139C34.9673 100.248 34.927 100.466 35.0365 100.626C35.146 100.785 35.3639 100.825 35.5232 100.716L35.1266 100.139ZM46.5686 90.4424C46.5708 90.2491 46.4159 90.0907 46.2226 90.0884C46.0293 90.0862 45.8708 90.2411 45.8686 90.4344L46.5686 90.4424ZM32.5042 99.4289C32.3415 99.5334 32.2943 99.7499 32.3988 99.9126C32.5032 100.075 32.7198 100.122 32.8824 100.018L32.5042 99.4289ZM8.81284 63.2258L9.1057 94.4694L9.80567 94.4628L9.51281 63.2193L8.81284 63.2258ZM7.68947 93.9368L7.14098 39.0536L6.44102 39.0606L6.98951 93.9438L7.68947 93.9368ZM6.7366 39.4029L8.88506 39.7409L8.99386 39.0494L6.8454 38.7114L6.7366 39.4029ZM8.58947 39.3984L8.79795 61.5945L9.49792 61.5879L9.28944 39.3918L8.58947 39.3984ZM44.3307 56.884L44.0486 76.42L44.7485 76.4302L45.0306 56.8942L44.3307 56.884ZM44.4611 76.0807L36.4257 74.6209L36.3006 75.3096L44.336 76.7695L44.4611 76.0807ZM36.6611 75.1489C37.0391 74.5358 37.3274 73.8729 37.5172 73.1798L36.8421 72.9948C36.6699 73.6235 36.4084 74.225 36.0652 74.7815L36.6611 75.1489ZM37.5175 73.1789C37.6844 72.5632 37.7689 71.9285 37.7688 71.291L37.0688 71.2912C37.0689 71.8666 36.9926 72.4397 36.8419 72.9957L37.5175 73.1789ZM37.7688 71.2911V55.9493H37.0688V71.2911H37.7688ZM37.3738 56.2964L44.6358 57.2362L44.7256 56.542L37.4637 55.6022L37.3738 56.2964ZM16.0135 9.00154V19.9669H16.7135V9.00154H16.0135ZM16.0135 19.9669C16.0135 20.5958 15.888 21.2186 15.6441 21.7999L16.2895 22.0708C16.5694 21.4039 16.7135 20.689 16.7135 19.9669H16.0135ZM15.6441 21.7999C15.4001 22.3812 15.0424 22.9097 14.5911 23.355L15.0828 23.8533C15.5995 23.3433 16.0096 22.7377 16.2895 22.0708L15.6441 21.7999ZM14.5911 23.355C14.1399 23.8004 13.6039 24.1539 13.0137 24.3952L13.2786 25.0432C13.953 24.7675 14.5662 24.3632 15.0828 23.8533L14.5911 23.355ZM13.0137 24.3952C12.4235 24.6365 11.7907 24.7608 11.1516 24.7608V25.4608C11.8814 25.4608 12.6041 25.3189 13.2786 25.0432L13.0137 24.3952ZM11.1516 24.7608C10.5125 24.7608 9.87977 24.6365 9.28955 24.3952L9.02467 25.0432C9.69913 25.3189 10.4219 25.4608 11.1516 25.4608V24.7608ZM9.28955 24.3952C8.69935 24.1539 8.16337 23.8004 7.71211 23.355L7.22039 23.8533C7.73707 24.3632 8.3502 24.7675 9.02467 25.0432L9.28955 24.3952ZM7.71211 23.355C7.26085 22.9097 6.90315 22.3812 6.65918 21.7999L6.01372 22.0708C6.29361 22.7377 6.70371 23.3433 7.22039 23.8533L7.71211 23.355ZM6.65918 21.7999C6.41522 21.2186 6.28972 20.5958 6.28972 19.9669H5.58972C5.58972 20.689 5.73384 21.4039 6.01372 22.0708L6.65918 21.7999ZM6.28972 19.9669V9.00154H5.58972V19.9669H6.28972ZM6.28972 7.64944V3.96383H5.58972V7.64944H6.28972ZM5.59665 4.03315C5.63296 4.21286 5.74872 4.34398 5.85889 4.43369C5.9722 4.52596 6.11394 4.60277 6.26714 4.6684C6.57467 4.80014 6.98714 4.91131 7.46726 5.00188C8.43177 5.18382 9.72988 5.29361 11.1516 5.29361V4.59361C9.76059 4.59361 8.50776 4.48581 7.59702 4.31401C7.13952 4.22771 6.78329 4.12798 6.54277 4.02495C6.42195 3.97319 6.34482 3.92666 6.3009 3.89089C6.25383 3.85257 6.27399 3.85095 6.28279 3.89452L5.59665 4.03315ZM11.1516 5.29361C12.5734 5.29361 13.8705 5.18382 14.8345 5.00188C15.3144 4.9113 15.7266 4.80013 16.0343 4.66844C16.1876 4.60282 16.3293 4.5261 16.4427 4.43408C16.5529 4.34462 16.6686 4.21426 16.7061 4.03565L16.021 3.89202C16.0299 3.84956 16.0492 3.85193 16.0016 3.89051C15.9572 3.92652 15.8797 3.97315 15.7588 4.02492C15.518 4.12799 15.1618 4.22772 14.7046 4.31402C13.7944 4.48581 12.5426 4.59361 11.1516 4.59361V5.29361ZM16.3635 4.31383H16.3677V3.61383H16.3635V4.31383ZM16.0177 3.96383V7.64944H16.7177V3.96383H16.0177ZM16.0135 3.92035C16.0136 3.91224 16.0144 3.90417 16.016 3.89625L16.7028 4.03141C16.7096 3.99659 16.7132 3.96119 16.7135 3.92567L16.0135 3.92035ZM16.0163 3.89452C16.0251 3.85096 16.0453 3.85258 15.9982 3.89091C15.9543 3.92668 15.8772 3.97321 15.7564 4.02496C15.5159 4.12799 15.1598 4.22772 14.7026 4.31402C13.7923 4.48582 12.5406 4.59361 11.1516 4.59361V5.29361C12.5713 5.29361 13.8684 5.18382 14.8324 5.00188C15.3123 4.91131 15.7246 4.80012 16.0321 4.66839C16.1852 4.60276 16.3269 4.52595 16.4402 4.43368C16.5504 4.34397 16.6661 4.21286 16.7024 4.03315L16.0163 3.89452ZM11.1516 4.59361C9.76256 4.59361 8.51076 4.48641 7.60057 4.31492C7.14332 4.22877 6.78733 4.12912 6.54698 4.02604C6.42626 3.97427 6.34924 3.9277 6.30539 3.89189C6.25852 3.85363 6.27834 3.85182 6.28699 3.89482L5.60073 4.03285C5.63688 4.21261 5.7523 4.34399 5.86266 4.4341C5.97602 4.52666 6.11783 4.60365 6.27107 4.66937C6.57864 4.80129 6.99109 4.9124 7.47096 5.00281C8.43498 5.18445 9.73204 5.29361 11.1516 5.29361V4.59361ZM6.29235 3.93136C6.2931 3.93938 6.2931 3.94746 6.29235 3.95548L5.59537 3.89054C5.59209 3.92572 5.59209 3.96113 5.59537 3.99631L6.29235 3.93136ZM6.29386 3.92301C6.29386 3.98273 6.26146 3.99925 6.29169 3.97033C6.32213 3.94121 6.38617 3.89642 6.5005 3.84349C6.72718 3.73857 7.07737 3.63509 7.53778 3.54492C8.45284 3.3657 9.73222 3.25241 11.1558 3.25241V2.55241C9.70116 2.55241 8.3746 2.66773 7.40324 2.85797C6.92044 2.95253 6.5073 3.06899 6.20646 3.20824C6.05703 3.27741 5.91625 3.36077 5.80783 3.46449C5.69919 3.5684 5.59386 3.72245 5.59386 3.92301H6.29386ZM11.1558 3.25241C12.5793 3.25241 13.8576 3.3657 14.7716 3.5449C15.2315 3.63507 15.5811 3.73853 15.8073 3.84341C15.9215 3.89631 15.9853 3.94106 16.0157 3.97013C16.0458 3.99896 16.0135 3.9825 16.0135 3.92301H16.7135C16.7135 3.72268 16.6085 3.56869 16.4999 3.46468C16.3916 3.36092 16.251 3.27752 16.1017 3.20833C15.8012 3.06903 15.3886 2.95255 14.9063 2.85798C13.9359 2.66773 12.6103 2.55241 11.1558 2.55241V3.25241ZM54.852 9.84239C53.4388 10.1614 51.3372 10.3645 48.9792 10.3645V11.0645C51.3683 11.0645 53.5255 10.8594 55.0061 10.5252L54.852 9.84239ZM48.9792 10.3645C46.8689 10.3645 44.9619 10.2008 43.5698 9.93806C42.8716 9.80629 42.3179 9.65234 41.9365 9.48895C41.7453 9.40702 41.6119 9.32878 41.5276 9.2601C41.4401 9.18886 41.4357 9.15316 41.4375 9.16179L40.7513 9.30015C40.7946 9.51494 40.935 9.68023 41.0855 9.80286C41.2392 9.92805 41.4372 10.0366 41.6609 10.1324C42.1092 10.3245 42.7192 10.4899 43.44 10.6259C44.8859 10.8988 46.8382 11.0645 48.9792 11.0645V10.3645ZM41.4368 9.15833C41.4374 9.16142 41.4378 9.16457 41.4378 9.16773L40.7378 9.1701C40.7379 9.21497 40.7427 9.2597 40.752 9.30361L41.4368 9.15833ZM41.4378 9.16892C41.4378 9.19074 41.4255 9.1755 41.4803 9.11994C41.5362 9.06326 41.6369 8.99158 41.798 8.91232C42.1186 8.75449 42.6062 8.60129 43.2405 8.46613L43.0946 7.7815C42.4376 7.9215 41.8852 8.08918 41.4888 8.28427C41.2913 8.38147 41.1142 8.49426 40.982 8.62837C40.8486 8.76358 40.7378 8.94542 40.7378 9.16892H41.4378ZM54.718 8.46613C55.3522 8.60127 55.84 8.75467 56.1609 8.91263C56.3221 8.99196 56.423 9.06371 56.479 9.12044C56.534 9.17614 56.5215 9.19124 56.5215 9.16892H57.2215C57.2215 8.94533 57.1104 8.76355 56.9771 8.62856C56.8448 8.49459 56.6676 8.38181 56.4701 8.28458C56.0735 8.08941 55.521 7.92152 54.8639 7.7815L54.718 8.46613ZM56.5216 9.16707C56.5216 9.16435 56.5219 9.16163 56.5224 9.15897L57.2074 9.30296C57.2166 9.25947 57.2213 9.21518 57.2215 9.17076L56.5216 9.16707ZM56.5219 9.1616C56.5236 9.15326 56.5212 9.18023 56.4577 9.23757C56.3954 9.29381 56.2947 9.36046 56.146 9.43245C55.8488 9.57627 55.4126 9.71637 54.8523 9.84233L55.0058 10.5253C55.5897 10.394 56.0846 10.2398 56.4509 10.0625C56.6339 9.97399 56.798 9.87341 56.9269 9.75704C57.0545 9.64178 57.1695 9.49075 57.208 9.30033L56.5219 9.1616ZM56.5218 10.4571C56.5235 10.4483 56.5193 10.4839 56.4319 10.5551C56.3477 10.6237 56.2144 10.702 56.0231 10.7839C55.6418 10.9473 55.0881 11.1012 54.3898 11.233C52.9976 11.4957 51.0904 11.6595 48.9801 11.6595V12.3595C51.1212 12.3595 53.0737 12.1937 54.5196 11.9209C55.2405 11.7848 55.8505 11.6194 56.2988 11.4273C56.5224 11.3315 56.7204 11.223 56.8741 11.0978C57.0246 10.9751 57.165 10.8097 57.2081 10.5948L56.5218 10.4571ZM48.9801 11.6595C46.8697 11.6595 44.9627 11.4957 43.5706 11.233C42.8724 11.1012 42.3187 10.9473 41.9374 10.7839C41.7461 10.702 41.6127 10.6237 41.5284 10.555C41.4409 10.4838 41.4366 10.4481 41.4383 10.4567L40.7521 10.5951C40.7954 10.8099 40.9358 10.9752 41.0864 11.0978C41.2401 11.223 41.4381 11.3315 41.6617 11.4273C42.11 11.6194 42.72 11.7848 43.4408 11.9209C44.8867 12.1937 46.839 12.3595 48.9801 12.3595V11.6595ZM16.304 7.30455C14.9382 7.54043 13.1338 7.68482 11.1516 7.68482V8.38482C13.1636 8.38482 15.0091 8.23855 16.4231 7.99433L16.304 7.30455ZM11.1516 7.68482C9.04129 7.68482 7.13429 7.52109 5.74217 7.25836C5.04398 7.12659 4.49026 6.97264 4.1089 6.80926C3.91766 6.72732 3.78429 6.64908 3.69996 6.5804C3.61249 6.50916 3.60812 6.47346 3.60986 6.48209L2.92367 6.62045C2.96698 6.83525 3.10733 7.00053 3.25791 7.12316C3.41162 7.24836 3.60962 7.35689 3.83323 7.45269C4.28159 7.64478 4.89155 7.81018 5.61236 7.94622C7.05824 8.2191 9.01053 8.38482 11.1516 8.38482V7.68482ZM3.60914 6.47863C3.60979 6.4817 3.61013 6.48485 3.61014 6.48803L2.91015 6.49041C2.9103 6.53529 2.91507 6.58002 2.92438 6.62391L3.60914 6.47863ZM3.61014 6.48922C3.61014 6.51479 3.59468 6.4899 3.67923 6.41536C3.76219 6.34223 3.90471 6.25572 4.12039 6.1643C4.54897 5.98266 5.18867 5.81367 5.9992 5.6739L5.88024 4.98409C5.04779 5.12764 4.3477 5.30769 3.84723 5.5198C3.59839 5.62526 3.37908 5.7468 3.21633 5.89026C3.05518 6.03233 2.91014 6.23258 2.91014 6.48922H3.61014ZM16.304 5.67227C17.1146 5.81204 17.7543 5.98103 18.1828 6.16267C18.3985 6.25408 18.541 6.34059 18.624 6.41373C18.7086 6.48826 18.6931 6.51316 18.6931 6.48758H19.3931C19.3931 6.23095 19.2481 6.0307 19.0869 5.88863C18.9242 5.74517 18.7048 5.62363 18.456 5.51817C17.9555 5.30606 17.2555 5.126 16.423 4.98245L16.304 5.67227ZM18.6932 6.47977C18.6932 6.47691 18.6936 6.47409 18.6943 6.47137L19.3754 6.6328C19.3861 6.58776 19.392 6.54171 19.393 6.4954L18.6932 6.47977ZM18.6918 6.48257C18.6935 6.47394 18.6877 6.51456 18.5862 6.59317C18.4891 6.66829 18.3372 6.75234 18.1223 6.83908C17.6941 7.01196 17.0755 7.17214 16.3024 7.30534L16.4213 7.99517C17.2168 7.85811 17.8904 7.68763 18.3844 7.48818C18.6306 7.38877 18.8473 7.27625 19.0146 7.14674C19.1775 7.02071 19.3318 6.84865 19.3778 6.6216L18.6918 6.48257ZM17.5072 57.5296C17.7113 57.4385 17.9203 57.3585 18.1334 57.2901L17.9193 56.6236C17.6821 56.6999 17.4492 56.7889 17.2219 56.8904L17.5072 57.5296ZM17.6395 58.6592C17.3506 58.5374 17.1393 58.4184 16.999 58.3074C16.8549 58.1934 16.8197 58.1152 16.8129 58.0825L16.1276 58.2252C16.182 58.4865 16.3595 58.694 16.5646 58.8564C16.7737 59.0217 17.0484 59.1697 17.3675 59.3043L17.6395 58.6592ZM16.8138 58.0868C16.8121 58.0784 16.8112 58.0699 16.8111 58.0614L16.1112 58.0731C16.112 58.1228 16.1172 58.1722 16.1267 58.2209L16.8138 58.0868ZM16.8111 58.0673C16.8111 58.0485 16.8198 57.986 16.9337 57.8793C17.0474 57.7729 17.2345 57.6537 17.507 57.5306L17.2187 56.8927C16.9114 57.0316 16.6475 57.1884 16.4553 57.3683C16.2634 57.548 16.1111 57.7824 16.1111 58.0673H16.8111ZM30.268 59.803C29.379 59.8485 28.4451 59.8728 27.4822 59.8728V60.5728C28.4568 60.5728 29.4026 60.5482 30.3038 60.5021L30.268 59.803ZM27.4822 59.8728C25.2897 59.8728 23.2506 59.7465 21.5446 59.53C19.8315 59.3126 18.4774 59.007 17.6414 58.6587L17.3722 59.3048C18.2959 59.6897 19.7243 60.0046 21.4565 60.2244C23.1957 60.4452 25.2645 60.5728 27.4822 60.5728V59.8728ZM37.0996 58.7554C36.3003 59.091 35.2105 59.3427 33.5111 59.5471L33.5946 60.2421C35.3168 60.035 36.4822 59.7739 37.3706 59.4008L37.0996 58.7554ZM43.5176 10.2148V6.12752H42.8176V10.2148H43.5176ZM43.5176 17.7371V11.509H42.8176V17.7371H43.5176ZM54.4409 23.9726C54.4409 25.3995 53.8666 26.7689 52.8429 27.7793L53.3346 28.2775C54.4906 27.1366 55.1409 25.5881 55.1409 23.9726H54.4409ZM52.8429 27.7793C51.819 28.7898 50.4292 29.3584 48.9792 29.3584V30.0584C50.6119 30.0584 52.1787 29.4183 53.3346 28.2775L52.8429 27.7793ZM48.9792 29.3584C47.5292 29.3584 46.1395 28.7898 45.1156 27.7793L44.6239 28.2775C45.7798 29.4183 47.3465 30.0584 48.9792 30.0584V29.3584ZM45.1156 27.7793C44.0919 26.7689 43.5176 25.3995 43.5176 23.9726H42.8176C42.8176 25.5881 43.4679 27.1366 44.6239 28.2775L45.1156 27.7793ZM43.5176 23.9726V17.7371H42.8176V23.9726H43.5176ZM54.7868 6.47752H54.7909V5.77752H54.7868V6.47752ZM54.4409 6.12752V10.1838H55.1409V6.12752H54.4409ZM54.4409 6.08243C54.4409 6.08377 54.4409 6.08121 54.4413 6.07629C54.4417 6.07123 54.4427 6.06269 54.4451 6.05181L55.1285 6.20322C55.1398 6.15241 55.141 6.10821 55.1409 6.08116L54.4409 6.08243ZM54.4437 6.05836C54.4509 6.02254 54.4656 6.03176 54.4095 6.07747C54.3565 6.12061 54.2668 6.17424 54.1302 6.23276C53.8581 6.3493 53.4577 6.46115 52.9465 6.55761C51.9285 6.74972 50.5307 6.86997 48.9826 6.86997V7.56997C50.5615 7.56997 52.0046 7.44772 53.0763 7.24547C53.6101 7.14475 54.0667 7.02145 54.4058 6.87621C54.5748 6.80384 54.7291 6.71992 54.8515 6.62027C54.9707 6.52318 55.0921 6.38436 55.1299 6.19667L54.4437 6.05836ZM48.9826 6.86997C47.4344 6.86997 46.0359 6.74972 45.0173 6.55761C44.5058 6.46114 44.1051 6.34929 43.8328 6.23272C43.696 6.17419 43.6062 6.12054 43.5531 6.07738C43.4969 6.03164 43.5117 6.02244 43.5189 6.05836L42.8327 6.19667C42.8706 6.38446 42.9921 6.5233 43.1113 6.62035C43.2338 6.71998 43.3882 6.80388 43.5573 6.87625C43.8966 7.02147 44.3535 7.14476 44.8876 7.24548C45.9599 7.44772 47.4036 7.56997 48.9826 7.56997V6.86997ZM43.5194 6.06095C43.5202 6.06492 43.5207 6.06898 43.5208 6.07309L42.821 6.0905C42.8218 6.1253 42.8256 6.15995 42.8322 6.19409L43.5194 6.06095ZM43.5209 6.08179C43.5209 6.13352 43.4926 6.14216 43.5309 6.10558C43.5693 6.06881 43.6451 6.01665 43.7747 5.9567C44.0318 5.83772 44.4259 5.72156 44.9406 5.62072C45.9643 5.42017 47.3936 5.29361 48.9826 5.29361V4.59361C47.3625 4.59361 45.886 4.72221 44.806 4.93378C44.2689 5.039 43.8119 5.16815 43.4807 5.32144C43.3161 5.39762 43.1635 5.48833 43.0471 5.59965C42.9305 5.71116 42.8209 5.87309 42.8209 6.08179H43.5209ZM48.9826 5.29361C50.5715 5.29361 52 5.42018 53.0228 5.62071C53.5371 5.72154 53.9308 5.83769 54.1875 5.95664C54.3169 6.01657 54.3926 6.06871 54.4309 6.10544C54.4691 6.14196 54.4409 6.13336 54.4409 6.08179H55.1409C55.1409 5.87326 55.0315 5.71136 54.915 5.5998C54.7987 5.48844 54.6462 5.3977 54.4818 5.3215C54.1509 5.16817 53.6942 5.03902 53.1575 4.93379C52.0783 4.72221 50.6026 4.59361 48.9826 4.59361V5.29361ZM48.3795 30.0331H49.5377V29.3331H48.3795V30.0331ZM49.1877 29.6831V83.9792H49.8877V29.6831H49.1877ZM49.5377 83.6292H48.3795V84.3292H49.5377V83.6292ZM48.7295 83.9792V29.6831H48.0295V83.9792H48.7295ZM36.6055 73.7221C36.3348 74.1652 36.0818 74.576 35.8201 74.9183C35.557 75.2626 35.3065 75.5084 35.0537 75.6439L35.3843 76.2608C35.7669 76.0558 36.0901 75.7179 36.3763 75.3434C36.664 74.967 36.9358 74.5242 37.2029 74.0871L36.6055 73.7221ZM33.3716 46.9172C35.2129 47.9977 36.3248 49.624 36.8419 51.5283L37.5174 51.3449C36.9575 49.2828 35.7413 47.4962 33.7259 46.3134L33.3716 46.9172ZM36.8419 51.5282C36.9926 52.0842 37.0689 52.6573 37.0688 53.2328L37.7688 53.233C37.7689 52.5955 37.6844 51.9608 37.5175 51.345L36.8419 51.5282ZM37.0688 53.2329V55.9493H37.7688V53.2329H37.0688ZM18.4591 63.1099V53.2304H17.7591V63.1099H18.4591ZM18.4591 53.2303C18.4589 52.6549 18.5352 52.0818 18.686 51.5258L18.0104 51.3426C17.8434 51.9583 17.7589 52.593 17.7591 53.2305L18.4591 53.2303ZM18.686 51.5257C19.7144 47.7292 23.9054 45.5038 27.7635 45.5038V44.8038C23.7112 44.8038 19.1494 47.1376 18.0103 51.3427L18.686 51.5257ZM27.7641 45.5038C28.7727 45.502 29.7765 45.6386 30.7468 45.9097L30.9352 45.2355C29.9031 44.9472 28.8354 44.8019 27.7629 44.8038L27.7641 45.5038ZM21.4606 76.971C20.0886 75.9205 19.1069 74.5427 18.6903 72.9939L18.0143 73.1758C18.4763 74.8929 19.5578 76.3957 21.035 77.5268L21.4606 76.971ZM18.6901 72.9933C18.5393 72.4373 18.4631 71.8642 18.4632 71.2887L17.7632 71.2885C17.763 71.926 17.8475 72.5607 18.0145 73.1765L18.6901 72.9933ZM18.4632 71.2886V64.9666H17.7632V71.2886H18.4632ZM9.10773 61.9356L30.7785 65.871L30.9035 65.1823L9.23281 61.2469L9.10773 61.9356ZM26.9653 66.1664L9.23409 62.8784L9.10646 63.5667L26.8377 66.8547L26.9653 66.1664ZM3.36692 3.44292V3.39964H2.66692V3.44292H3.36692ZM57.2537 5.97565V7.91725H57.9537V5.97565H57.2537ZM57.6037 8.26725H59.6214V7.56725H57.6037V8.26725ZM59.9714 7.91725V5.78133H59.2714V7.91725H59.9714ZM59.6214 5.43133H58.5724V6.13133H59.6214V5.43133ZM58.9224 5.78133V4.91912H58.2224V5.78133H58.9224ZM58.9224 4.91912C58.9224 4.30141 58.6738 3.70994 58.2326 3.27458L57.7409 3.7728C58.0498 4.07761 58.2224 4.49005 58.2224 4.91912H58.9224ZM58.2326 3.27458C57.7917 2.83937 57.1946 2.59568 56.5729 2.59568V3.29568C57.0119 3.29568 57.4319 3.46782 57.7409 3.7728L58.2326 3.27458ZM56.5729 2.59568H52.8567V3.29568H56.5729V2.59568ZM52.8567 2.59568C51.5955 2.59568 50.5098 3.61435 50.5445 4.89675L51.2443 4.87781C51.2211 4.02102 51.9571 3.29568 52.8567 3.29568V2.59568ZM50.8684 5.23631L51.723 5.29999L51.775 4.60193L50.9204 4.53825L50.8684 5.23631ZM52.0978 4.97949C52.1214 4.69108 52.2221 4.48246 52.4215 4.33276L52.0014 3.7729C51.6068 4.06901 51.4361 4.48255 51.4002 4.92243L52.0978 4.97949ZM52.4212 4.33306C52.6334 4.1742 52.8927 4.08701 53.1602 4.08521L53.1555 3.38523C52.7392 3.38802 52.3344 3.52366 52.0018 3.77261L52.4212 4.33306ZM53.1579 4.08522H56.0732V3.38522H53.1579V4.08522ZM56.0732 4.08522C56.4137 4.08522 56.7034 4.20312 56.9075 4.41006C57.1105 4.6159 57.2553 4.93685 57.2553 5.39186H57.9553C57.9553 4.78218 57.7573 4.27481 57.4058 3.9185C57.0555 3.56329 56.579 3.38522 56.0732 3.38522V4.08522ZM57.2553 5.39088L57.2537 5.97466L57.9537 5.97664L57.9553 5.39285L57.2553 5.39088ZM30.5473 80.3218L30.5737 99.4137L31.2737 99.4127L31.2473 80.3209L30.5473 80.3218ZM31.2258 65.5262L31.191 42.0931L30.491 42.0941L30.5258 65.5272L31.2258 65.5262ZM30.8083 42.4421L32.5456 42.6054L32.6111 41.9084L30.8738 41.7451L30.8083 42.4421ZM2.74204 33.8891L2.74783 33.8964L3.29759 33.4631L3.2918 33.4557L2.74204 33.8891ZM2.97207 34.0261L48.3297 40.6584L48.4309 39.9657L3.07335 33.3334L2.97207 34.0261ZM48.0303 40.312V41.1971H48.7303V40.312H48.0303ZM48.4309 40.8508L21.3397 36.8949L21.2386 37.5876L48.3297 41.5434L48.4309 40.8508ZM21.3576 36.898L21.198 36.8662L21.0611 37.5526L21.2207 37.5845L21.3576 36.898ZM21.1802 36.8631L2.10051 34.0707L1.99914 34.7633L21.0788 37.5557L21.1802 36.8631ZM2.39983 34.417V5.97238H1.69983V34.417H2.39983ZM2.04983 5.62238H1V6.32238H2.04983V5.62238ZM1.35 5.97238V3.83565H0.65V5.97238H1.35ZM1 4.18565H2.04983V3.48565H1V4.18565ZM2.39983 3.83565V2.97344H1.69983V3.83565H2.39983ZM2.39983 2.97344C2.39983 2.54437 2.57248 2.13193 2.88134 1.82712L2.38962 1.3289C1.9485 1.76426 1.69983 2.35573 1.69983 2.97344H2.39983ZM2.88134 1.82712C3.19034 1.52214 3.61041 1.35 4.04937 1.35V0.65C3.42771 0.65 2.83059 0.893688 2.38962 1.3289L2.88134 1.82712ZM4.04937 1.35H7.76554V0.65H4.04937V1.35ZM7.76554 1.35C8.66521 1.35 9.40118 2.07534 9.37799 2.93213L10.0777 2.95107C10.1124 1.66867 9.02674 0.65 7.76554 0.65V1.35ZM9.70185 2.59257L8.84726 2.65625L8.89929 3.35432L9.75387 3.29063L9.70185 2.59257ZM9.22211 2.97675C9.18613 2.53687 9.01545 2.12333 8.62092 1.82722L8.20073 2.38708C8.40018 2.53678 8.50085 2.7454 8.52444 3.03381L9.22211 2.97675ZM8.62149 1.82766C8.28932 1.57728 7.88452 1.44023 7.46771 1.43629L7.4611 2.13626C7.72892 2.13879 7.9882 2.22689 8.20015 2.38665L8.62149 1.82766ZM7.46441 1.43627H4.54905V2.13627H7.46441V1.43627ZM4.54905 1.43627C4.04326 1.43627 3.56681 1.61434 3.21644 1.96955C2.86499 2.32586 2.66692 2.83323 2.66692 3.44292H3.36692C3.36692 2.98791 3.51177 2.66696 3.7148 2.46112C3.91892 2.25418 4.20854 2.13627 4.54905 2.13627V1.43627ZM19.0091 36.9947L19.0968 49.131L19.7968 49.1259L19.7091 36.9897L19.0091 36.9947ZM17.8543 35.7928V15.6485H17.1543V35.7928H17.8543ZM17.5043 15.9985H19.1837V15.2985H17.5043V15.9985ZM18.8337 15.6514L19.0017 36.0676L19.7017 36.0618L19.5337 15.6456L18.8337 15.6514ZM9.8274 93.2597L21.4226 86.5743L21.073 85.9679L9.47776 92.6532L9.8274 93.2597ZM46.5396 92.9604L47.132 41.0174L46.432 41.0094L45.8397 92.9525L46.5396 92.9604ZM32.6245 90.4632L44.022 92.7477L44.1596 92.0613L32.7621 89.7768L32.6245 90.4632ZM10.8567 94.9814L22.4163 88.225L22.0631 87.6206L10.5035 94.377L10.8567 94.9814ZM22.1677 88.2653L30.769 90.073L30.913 89.388L22.3117 87.5803L22.1677 88.2653ZM2.91014 6.48922V7.59474H3.61014V6.48922H2.91014ZM2.91022 7.60222L2.91684 7.91167L3.61668 7.8967L3.61006 7.58725L2.91022 7.60222ZM2.9236 7.97303C2.96673 8.18797 3.10706 8.35335 3.2576 8.47602C3.41129 8.60125 3.60928 8.70979 3.83287 8.8056C4.2812 8.99769 4.8912 9.16309 5.61205 9.29913C7.05803 9.57201 9.01053 9.73773 11.1516 9.73773V9.03773C9.04129 9.03773 7.13408 8.87401 5.74186 8.61127C5.04361 8.4795 4.48987 8.32555 4.10856 8.16217C3.91734 8.08024 3.78403 8.00201 3.69978 7.93336C3.61239 7.86216 3.60816 7.82655 3.60992 7.83533L2.9236 7.97303ZM11.1516 9.73773C13.2927 9.73773 15.2448 9.57201 16.6904 9.29913C17.411 9.16309 18.0208 8.99769 18.469 8.80558C18.6925 8.70977 18.8905 8.60122 19.0441 8.47598C19.1946 8.3533 19.3349 8.18792 19.378 7.97303L18.6917 7.83533C18.6934 7.8266 18.6892 7.86222 18.6018 7.93341C18.5176 8.00205 18.3844 8.08027 18.1932 8.16219C17.8121 8.32556 17.2586 8.47951 16.5605 8.61128C15.1687 8.87401 13.2619 9.03773 11.1516 9.03773V9.73773ZM19.3772 7.97682C19.3865 7.93296 19.3913 7.88822 19.3914 7.84332L18.6914 7.84094C18.6915 7.83774 18.6918 7.83459 18.6924 7.83155L19.3772 7.97682ZM19.3914 7.84213V6.48922H18.6914V7.84213H19.3914ZM40.7444 9.23119L40.7452 10.5261L41.4452 10.5257L41.4444 9.23074L40.7444 9.23119ZM56.5207 9.23097V10.5259H57.2207V9.23097H56.5207ZM22.8197 86.4634L30.7732 88.0335L30.9088 87.3467L22.9553 85.7766L22.8197 86.4634ZM44.4821 40.6739L44.0428 90.3455L44.7428 90.3517L45.1821 40.6801L44.4821 40.6739ZM44.4604 90.0052L32.7129 87.6929L32.5777 88.3797L44.3252 90.692L44.4604 90.0052ZM38.735 32.4795C38.7222 33.161 38.5586 33.755 38.3263 34.1648C38.0849 34.5909 37.8228 34.7378 37.6357 34.7342L37.6221 35.434C38.1927 35.4451 38.6451 35.0221 38.9353 34.51C39.2348 33.9817 39.4203 33.2693 39.4348 32.4926L38.735 32.4795ZM37.6357 34.7342C37.4667 34.7309 37.2546 34.5993 37.0726 34.1669C36.8966 33.7489 36.7968 33.1438 36.8099 32.4452L36.11 32.4321C36.0958 33.1918 36.2015 33.902 36.4274 34.4385C36.6473 34.9607 37.0333 35.4226 37.6221 35.434L37.6357 34.7342ZM36.8099 32.4452C36.8227 31.7604 36.9785 31.1605 37.2034 30.7463C37.4376 30.315 37.6908 30.172 37.872 30.1759L37.8871 29.476C37.3106 29.4636 36.8676 29.8978 36.5882 30.4124C36.2995 30.9441 36.1245 31.6587 36.11 32.4321L36.8099 32.4452ZM37.872 30.1759C38.0436 30.1796 38.2646 30.3179 38.4556 30.7554C38.6397 31.1769 38.7476 31.7844 38.735 32.4797L39.4349 32.4924C39.4487 31.7295 39.3329 31.0151 39.0971 30.4752C38.8682 29.9512 38.4733 29.4887 37.8871 29.476L37.872 30.1759ZM30.374 29.2311C29.9924 29.9077 29.7655 30.8493 29.7655 31.8721H30.4655C30.4655 30.9418 30.6737 30.1247 30.9837 29.5749L30.374 29.2311ZM29.7655 31.8721C29.7655 32.6193 29.8861 33.3191 30.0974 33.9036C30.3065 34.482 30.6154 34.9763 31.0138 35.2757L31.4343 34.7161C31.1841 34.528 30.9387 34.1716 30.7557 33.6656C30.5749 33.1655 30.4655 32.5471 30.4655 31.8721H29.7655ZM31.8577 35.5745C32.4949 35.5745 32.9999 35.1113 33.335 34.5224L32.7266 34.1762C32.4429 34.6748 32.124 34.8745 31.8577 34.8745V35.5745ZM30.9835 29.5753C31.2684 29.0714 31.5891 28.8696 31.8569 28.8696V28.1696C31.2164 28.1696 30.7098 28.6372 30.3742 29.2307L30.9835 29.5753ZM31.8569 28.8696C32.1783 28.8696 32.5159 29.0834 32.8092 29.7263L33.4461 29.4357C33.1023 28.6824 32.5779 28.1696 31.8569 28.1696V28.8696ZM29.1074 29.2311C28.7258 29.9077 28.4989 30.8493 28.4989 31.8721H29.1989C29.1989 30.9418 29.4071 30.1247 29.7172 29.5749L29.1074 29.2311ZM28.4989 31.8721C28.4989 32.8424 28.7023 33.7381 29.0482 34.404C29.3852 35.0527 29.9123 35.5745 30.5903 35.5745V34.8745C30.3062 34.8745 29.9627 34.646 29.6694 34.0814C29.3851 33.534 29.1989 32.7535 29.1989 31.8721H28.4989ZM29.717 29.5753C30.0019 29.0714 30.3225 28.8696 30.5903 28.8696V28.1696C29.9498 28.1696 29.4432 28.6372 29.1076 29.2307L29.717 29.5753ZM30.585 28.8695C30.7224 28.8716 30.8554 28.9155 30.9658 28.9945L31.3731 28.4252C31.1462 28.2629 30.8748 28.1739 30.5957 28.1696L30.585 28.8695ZM30.4263 34.2792L37.5733 35.4296L37.6845 34.7385L30.5376 33.5881L30.4263 34.2792ZM21.5978 47.2962V37.4805H20.8978V47.2962H21.5978ZM21.5978 86.2711V77.2489H20.8978V86.2711H21.5978ZM22.4994 78.2443L22.5375 86.1217L23.2375 86.1183L23.1994 78.2409L22.4994 78.2443ZM19.4536 26.3511L28.5124 23.593L28.3085 22.9233L19.2497 25.6814L19.4536 26.3511ZM19.4534 27.9294L28.9457 25.0464L28.7422 24.3766L19.25 27.2596L19.4534 27.9294ZM29.3957 80.2454V84.1735H30.0957V80.2454H29.3957ZM29.3957 84.1735C29.3957 84.4592 29.2807 84.7342 29.0746 84.9377L29.5663 85.4359C29.9047 85.1019 30.0957 84.6479 30.0957 84.1735H29.3957ZM29.0746 84.9377C28.8683 85.1413 28.5875 85.2565 28.2938 85.2565V85.9565C28.7702 85.9565 29.228 85.7697 29.5663 85.4359L29.0746 84.9377ZM28.2938 85.2565H27.8644V85.9565H28.2938V85.2565ZM27.8644 85.2565C27.5707 85.2565 27.29 85.1413 27.0837 84.9377L26.5919 85.4359C26.9302 85.7697 27.388 85.9565 27.8644 85.9565V85.2565ZM27.0837 84.9377C26.8775 84.7342 26.7626 84.4592 26.7626 84.1735H26.0626C26.0626 84.6479 26.2535 85.1019 26.5919 85.4359L27.0837 84.9377ZM26.7626 84.1735V80.0985H26.0626V84.1735H26.7626ZM26.7626 80.0976C26.7623 80.004 26.7746 79.9107 26.7992 79.8202L26.1236 79.637C26.0827 79.7878 26.0622 79.9432 26.0626 80.0993L26.7626 80.0976ZM32.2837 67.3229V80.5647H32.9837V67.3229H32.2837ZM32.6807 80.2178L26.4992 79.3818L26.4054 80.0754L32.5868 80.9115L32.6807 80.2178ZM26.4837 79.38C26.309 79.3643 26.1394 79.3148 25.9845 79.2344L25.6623 79.8559C25.8981 79.9782 26.1559 80.0533 26.4209 80.0772L26.4837 79.38ZM25.9845 79.2344C25.8296 79.1541 25.6926 79.0446 25.5811 78.9124L25.046 79.3638C25.2169 79.5664 25.4264 79.7335 25.6623 79.8559L25.9845 79.2344ZM25.5811 78.9124C25.4696 78.7803 25.3858 78.6279 25.3343 78.4643L24.6666 78.6746C24.7461 78.9269 24.8751 79.1611 25.046 79.3638L25.5811 78.9124ZM25.3343 78.4643C25.2827 78.3006 25.2644 78.1287 25.2802 77.9582L24.5832 77.8934C24.5588 78.1568 24.5871 78.4222 24.6666 78.6746L25.3343 78.4643ZM25.2817 77.9256L25.2751 68.0167L24.5751 68.0172L24.5817 77.926L25.2817 77.9256ZM25.2735 68.05C25.3062 67.7057 25.4761 67.3871 25.7476 67.1648L25.3041 66.6232C24.8893 66.9628 24.6271 67.452 24.5767 67.9839L25.2735 68.05ZM25.7476 67.1648C26.0192 66.9424 26.3701 66.8349 26.7231 66.8672L26.787 66.1702C26.2521 66.1212 25.7187 66.2837 25.3041 66.6232L25.7476 67.1648ZM26.7076 66.8655L32.5863 67.6697L32.6812 66.9762L26.8025 66.1719L26.7076 66.8655ZM32.7848 67.6387L35.1657 66.4997L34.8636 65.8682L32.4827 67.0072L32.7848 67.6387ZM34.6647 66.1877L34.8037 79.1184L35.5036 79.1108L35.3646 66.1802L34.6647 66.1877ZM34.9793 78.8111L32.4569 80.2604L32.8056 80.8673L35.328 79.4181L34.9793 78.8111ZM43.0509 23.4866L32.915 25.8756L33.0756 26.5569L43.2115 24.1679L43.0509 23.4866ZM32.9149 25.8756C32.0565 26.0781 31.152 25.9358 30.4004 25.4807L30.0378 26.0795C30.9467 26.6299 32.0393 26.8014 33.0756 26.5569L32.9149 25.8756ZM30.4004 25.4807C29.649 25.0257 29.1128 24.2957 28.9077 23.4523L28.2275 23.6176C28.477 24.6438 29.1287 25.5289 30.0378 26.0795L30.4004 25.4807ZM28.9077 23.4523C28.8728 23.3086 28.8479 23.1628 28.8332 23.0158L28.1367 23.0857C28.1546 23.2649 28.185 23.4426 28.2275 23.6176L28.9077 23.4523ZM28.8332 23.0101C28.7541 22.2229 28.9666 21.4337 29.4323 20.7885L28.8647 20.3788C28.2993 21.1621 28.0404 22.1218 28.1367 23.08L28.8332 23.0101ZM29.4323 20.7885C29.898 20.1431 30.5858 19.6852 31.3688 19.5009L31.2084 18.8195C30.2628 19.0421 29.4299 19.5956 28.8647 20.3788L29.4323 20.7885ZM31.3689 19.5009L43.2115 16.7093L43.0509 16.028L31.2083 18.8196L31.3689 19.5009ZM29.2466 34.7787L29.4038 35.7152L30.0942 35.5993L29.937 34.6628L29.2466 34.7787ZM29.749 35.6573C29.6474 35.3223 29.6475 35.3223 29.6477 35.3223C29.6477 35.3222 29.6478 35.3222 29.6479 35.3222C29.648 35.3221 29.6482 35.3221 29.6483 35.3221C29.6486 35.322 29.6488 35.3219 29.6491 35.3218C29.6495 35.3217 29.6498 35.3216 29.65 35.3216C29.6504 35.3214 29.6504 35.3215 29.6498 35.3216C29.6487 35.3219 29.6457 35.3228 29.6406 35.324C29.6305 35.3266 29.6123 35.331 29.5851 35.3367C29.5308 35.3481 29.4409 35.3648 29.3086 35.3825C29.0441 35.4181 28.6115 35.4582 27.9579 35.4706L27.9712 36.1705C28.647 36.1576 29.1067 36.116 29.402 36.0763C29.5497 36.0564 29.6566 36.037 29.7291 36.0217C29.7654 36.0141 29.7931 36.0075 29.8131 36.0025C29.8231 35.9999 29.8311 35.9978 29.8373 35.996C29.8404 35.9952 29.8431 35.9944 29.8453 35.9938C29.8464 35.9935 29.8474 35.9932 29.8483 35.9929C29.8487 35.9928 29.8491 35.9926 29.8495 35.9925C29.8497 35.9925 29.8499 35.9924 29.8501 35.9924C29.8501 35.9923 29.8503 35.9923 29.8503 35.9923C29.8504 35.9922 29.8506 35.9922 29.749 35.6573ZM27.9579 35.4706C27.3254 35.4827 26.8807 35.4049 26.6019 35.329C26.4624 35.2911 26.3637 35.2534 26.3034 35.2273C26.2732 35.2143 26.2525 35.2041 26.241 35.1981C26.2353 35.1951 26.2318 35.1932 26.2306 35.1926C26.23 35.1922 26.23 35.1922 26.2305 35.1925C26.2307 35.1926 26.2311 35.1929 26.2317 35.1932C26.2319 35.1934 26.2322 35.1935 26.2326 35.1937C26.2327 35.1938 26.2329 35.1939 26.2331 35.1941C26.2332 35.1941 26.2333 35.1942 26.2334 35.1942C26.2335 35.1943 26.2337 35.1944 26.0527 35.494C25.8717 35.7935 25.8718 35.7936 25.872 35.7937C25.872 35.7938 25.8722 35.7939 25.8723 35.7939C25.8725 35.7941 25.8728 35.7942 25.873 35.7943C25.8735 35.7946 25.874 35.7949 25.8746 35.7953C25.8757 35.7959 25.8769 35.7967 25.8783 35.7975C25.8811 35.7991 25.8845 35.801 25.8885 35.8033C25.8965 35.8077 25.9068 35.8134 25.9196 35.82C25.9452 35.8332 25.9804 35.8503 26.0255 35.8698C26.1159 35.9089 26.246 35.9576 26.4182 36.0045C26.763 36.0983 27.2742 36.1838 27.9712 36.1705L27.9579 35.4706ZM26.3997 35.5396L27.1219 30.0512L26.4279 29.9599L25.7057 35.4483L26.3997 35.5396ZM26.7749 30.3556H29.0913V29.6556H26.7749V30.3556ZM19.3157 32.501L24.8626 33.195L24.9495 32.5005L19.4026 31.8064L19.3157 32.501ZM24.8623 33.195C24.8589 33.1946 24.8555 33.1935 24.8521 33.1916L25.1964 32.5821C25.1202 32.5391 25.0364 32.5114 24.9498 32.5005L24.8623 33.195ZM24.8521 33.1916C24.8488 33.1897 24.8455 33.187 24.8427 33.1834L25.3938 32.7518C25.3397 32.6827 25.2725 32.6251 25.1964 32.5821L24.8521 33.1916ZM24.8427 33.1834C24.84 33.1799 24.8377 33.1756 24.8364 33.1706L25.5113 32.9848C25.4879 32.9 25.4479 32.8208 25.3938 32.7518L24.8427 33.1834ZM24.8364 33.1706C24.835 33.1657 24.8346 33.1605 24.8353 33.1554L25.5295 33.2456C25.5408 33.1583 25.5346 33.0697 25.5113 32.9848L24.8364 33.1706ZM24.8353 33.1556C24.8359 33.1504 24.8376 33.1457 24.84 33.1415L25.4456 33.4927C25.4896 33.4167 25.5182 33.3326 25.5295 33.2454L24.8353 33.1556ZM24.84 33.1415C24.8424 33.1374 24.8454 33.1341 24.8486 33.1317L25.2733 33.6882C25.3429 33.635 25.4015 33.5687 25.4456 33.4927L24.84 33.1415ZM24.8486 33.1317C24.8518 33.1292 24.8553 33.1276 24.8587 33.1267L25.04 33.8028C25.1244 33.7801 25.2037 33.7413 25.2733 33.6882L24.8486 33.1317ZM24.8587 33.1267C24.8621 33.1257 24.8656 33.1255 24.8689 33.1259L24.781 33.8204C24.8676 33.8314 24.9556 33.8254 25.04 33.8028L24.8587 33.1267ZM24.8672 33.1257L19.4402 32.4668L19.3558 33.1617L24.7828 33.8206L24.8672 33.1257ZM17.5478 32.2098L5.99726 30.7638L5.91031 31.4584L17.4609 32.9044L17.5478 32.2098ZM5.99752 30.7638C6.00092 30.7643 6.00439 30.7654 6.00772 30.7673L5.66347 31.3768C5.73963 31.4198 5.82342 31.4474 5.91005 31.4583L5.99752 30.7638ZM6.00772 30.7673C6.01107 30.7691 6.01431 30.7718 6.0171 30.7754L5.46605 31.2071C5.52016 31.2761 5.58731 31.3337 5.66347 31.3768L6.00772 30.7673ZM6.0171 30.7754C6.0199 30.779 6.02215 30.7833 6.0235 30.7882L5.3486 30.974C5.37195 31.0588 5.41194 31.138 5.46605 31.2071L6.0171 30.7754ZM6.0235 30.7882C6.02485 30.7931 6.02522 30.7983 6.02455 30.8035L5.33039 30.7133C5.31905 30.8005 5.32525 30.8892 5.3486 30.974L6.0235 30.7882ZM6.02458 30.8033C6.02392 30.8084 6.02225 30.8132 6.01986 30.8173L5.4143 30.4662C5.37023 30.5422 5.34165 30.6262 5.33036 30.7135L6.02458 30.8033ZM6.01986 30.8173C6.01747 30.8214 6.01447 30.8247 6.01123 30.8272L5.5866 30.2707C5.51698 30.3238 5.45836 30.3902 5.4143 30.4662L6.01986 30.8173ZM6.01123 30.8272C6.00801 30.8296 6.00456 30.8313 6.00116 30.8322L5.81986 30.1561C5.73548 30.1787 5.6562 30.2176 5.5866 30.2707L6.01123 30.8272ZM6.00116 30.8322C5.99776 30.8331 5.99429 30.8333 5.99091 30.8329L6.07881 30.1384C5.9922 30.1275 5.90423 30.1334 5.81986 30.1561L6.00116 30.8322ZM5.9914 30.833L17.4617 32.2683L17.5486 31.5737L6.07832 30.1384L5.9914 30.833ZM48.5515 35.9665L42.8168 35.2431L42.7291 35.9376L48.4639 36.661L48.5515 35.9665ZM42.8167 35.2431C42.8201 35.2435 42.8236 35.2446 42.8269 35.2465L42.4826 35.856C42.5588 35.899 42.6426 35.9267 42.7292 35.9376L42.8167 35.2431ZM42.8269 35.2465C42.8302 35.2484 42.8335 35.2511 42.8363 35.2546L42.2852 35.6863C42.3393 35.7554 42.4065 35.813 42.4826 35.856L42.8269 35.2465ZM42.8363 35.2546C42.8391 35.2582 42.8413 35.2625 42.8427 35.2674L42.1678 35.4532C42.1911 35.5381 42.2311 35.6172 42.2852 35.6863L42.8363 35.2546ZM42.8427 35.2674C42.844 35.2724 42.8444 35.2776 42.8437 35.2827L42.1496 35.1925C42.1382 35.2798 42.1444 35.3684 42.1678 35.4532L42.8427 35.2674ZM42.8437 35.2825C42.8431 35.2876 42.8414 35.2924 42.839 35.2965L42.2335 34.9454C42.1894 35.0214 42.1608 35.1054 42.1495 35.1927L42.8437 35.2825ZM42.839 35.2965C42.8366 35.3006 42.8336 35.3039 42.8304 35.3064L42.4058 34.7499C42.3361 34.803 42.2775 34.8694 42.2335 34.9454L42.839 35.2965ZM42.8304 35.3064C42.8272 35.3089 42.8237 35.3105 42.8203 35.3114L42.639 34.6353C42.5547 34.6579 42.4754 34.6968 42.4058 34.7499L42.8304 35.3064ZM42.8203 35.3114C42.8169 35.3123 42.8135 35.3125 42.8101 35.3121L42.898 34.6177C42.8113 34.6067 42.7234 34.6127 42.639 34.6353L42.8203 35.3114ZM42.8102 35.3121L48.4763 36.0266L48.5639 35.3321L42.8978 34.6176L42.8102 35.3121ZM57.6474 36.4776L49.5814 35.4616L49.4939 36.1561L57.56 37.1721L57.6474 36.4776ZM49.1877 35.8088V36.3137H49.8877V35.8088H49.1877ZM49.4902 36.6605L61.5926 38.3171L61.6875 37.6236L49.5851 35.967L49.4902 36.6605ZM61.5961 38.3176C61.6827 38.3286 61.7707 38.3226 61.855 38.3L61.6737 37.6238C61.6771 37.6229 61.6806 37.6227 61.684 37.6231L61.5961 38.3176ZM61.855 38.3C61.9394 38.2773 62.0187 38.2385 62.0883 38.1853L61.6636 37.6288C61.6669 37.6264 61.6703 37.6248 61.6737 37.6238L61.855 38.3ZM62.0883 38.1853C62.1579 38.1322 62.2165 38.0659 62.2606 37.9899L61.655 37.6387C61.6574 37.6346 61.6604 37.6313 61.6636 37.6288L62.0883 38.1853ZM62.2606 37.9899C62.3047 37.9139 62.3332 37.8298 62.3445 37.7425L61.6503 37.6528C61.651 37.6476 61.6526 37.6429 61.655 37.6387L62.2606 37.9899ZM62.3445 37.7428C62.3558 37.6555 62.3496 37.5668 62.3263 37.482L61.6514 37.6678C61.65 37.6629 61.6497 37.6577 61.6503 37.6526L62.3445 37.7428ZM62.3263 37.482C62.3029 37.3972 62.263 37.3181 62.2088 37.249L61.6578 37.6806C61.655 37.677 61.6527 37.6727 61.6514 37.6678L62.3263 37.482ZM62.2088 37.249C62.1547 37.1799 62.0876 37.1223 62.0114 37.0793L61.6672 37.6888C61.6638 37.6869 61.6606 37.6842 61.6578 37.6806L62.2088 37.249ZM62.0114 37.0793C61.9352 37.0363 61.8515 37.0086 61.7648 36.9977L61.6774 37.6922C61.674 37.6918 61.6705 37.6907 61.6672 37.6888L62.0114 37.0793ZM61.7649 36.9977L58.6096 36.6001L58.5221 37.2946L61.6773 37.6922L61.7649 36.9977ZM58.5664 7.56888L57.6043 7.56725L57.6031 8.26725L58.5652 8.26888L58.5664 7.56888ZM49.3453 40.82L61.3409 42.5836L61.4427 41.891L49.4471 40.1274L49.3453 40.82ZM61.3405 42.5835C61.3314 42.5822 61.324 42.5786 61.3198 42.5756C61.3161 42.573 61.3173 42.5726 61.3205 42.5779C61.3274 42.5893 61.3371 42.6167 61.3311 42.6566L62.0234 42.7603C62.0773 42.4005 61.8852 41.9566 61.4432 41.8911L61.3405 42.5835ZM61.3311 42.6566C61.3252 42.6959 61.3079 42.7196 61.2972 42.7292C61.2922 42.7337 61.2906 42.7335 61.2939 42.7324C61.2978 42.731 61.3049 42.7298 61.3131 42.731L61.2141 43.424C61.6541 43.4868 61.9692 43.1222 62.0234 42.7603L61.3311 42.6566ZM61.3145 42.7312L49.4471 40.988L49.3453 41.6806L61.2127 43.4238L61.3145 42.7312ZM26.0311 34.9406L21.7218 34.3552L21.6276 35.0488L25.9369 35.6342L26.0311 34.9406ZM21.7184 34.3547C21.7218 34.3552 21.7253 34.3563 21.7286 34.3581L21.3844 34.9676C21.4605 35.0107 21.5443 35.0383 21.631 35.0492L21.7184 34.3547ZM21.7286 34.3581C21.732 34.36 21.7352 34.3627 21.738 34.3663L21.187 34.798C21.2411 34.867 21.3082 34.9246 21.3844 34.9676L21.7286 34.3581ZM21.738 34.3663C21.7408 34.3699 21.743 34.3742 21.7444 34.3791L21.0695 34.5649C21.0929 34.6497 21.1328 34.7289 21.187 34.798L21.738 34.3663ZM21.7444 34.3791C21.7458 34.384 21.7461 34.3892 21.7455 34.3944L21.0513 34.3042C21.04 34.3914 21.0462 34.4801 21.0695 34.5649L21.7444 34.3791ZM21.7455 34.3941C21.7448 34.3993 21.7432 34.4041 21.7408 34.4082L21.1352 34.0571C21.0911 34.1331 21.0626 34.2171 21.0513 34.3044L21.7455 34.3941ZM21.7408 34.4082C21.7384 34.4123 21.7354 34.4156 21.7321 34.4181L21.3075 33.8616C21.2379 33.9147 21.1793 33.9811 21.1352 34.0571L21.7408 34.4082ZM21.7321 34.4181C21.7289 34.4205 21.7255 34.4222 21.7221 34.4231L21.5408 33.747C21.4564 33.7696 21.3771 33.8085 21.3075 33.8616L21.7321 34.4181ZM21.7221 34.4231C21.7187 34.424 21.7152 34.4242 21.7118 34.4238L21.7997 33.7293C21.7131 33.7184 21.6251 33.7243 21.5408 33.747L21.7221 34.4231ZM21.7086 34.4234L25.9981 35.0063L26.0924 34.3127L21.8029 33.7297L21.7086 34.4234ZM35.1823 66.4962L44.8202 61.3033L44.4882 60.6871L34.8503 65.8799L35.1823 66.4962ZM21.04 77.5269C22.2756 78.4498 23.6963 79.1016 25.207 79.439L25.3596 78.7559C23.9449 78.4398 22.6151 77.8296 21.4589 76.9661L21.04 77.5269ZM30.4811 28.8696H31.8569V28.1696H30.4811V28.8696ZM31.8577 34.8745H30.5903V35.5745H31.8577V34.8745ZM30.5974 35.5745C30.905 35.5683 31.2024 35.4612 31.4425 35.2694L31.0056 34.7225C30.8864 34.8177 30.7379 34.8715 30.5833 34.8746L30.5974 35.5745ZM31.0052 35.2691C31.2454 35.4615 31.5432 35.5687 31.8512 35.5745L31.8643 34.8746C31.71 34.8717 31.5617 34.818 31.4429 34.7228L31.0052 35.2691ZM30.5903 34.8745H30.4811V35.5745H30.5903V34.8745ZM36.6681 102.66L5.41241 95.1692L5.24927 95.8499L36.5049 103.34L36.6681 102.66ZM5.6804 95.4921L5.57947 93.4746L4.88035 93.5095L4.98128 95.5271L5.6804 95.4921ZM5.14951 93.8327L36.5061 101.234L36.6669 100.553L5.31031 93.1514L5.14951 93.8327ZM36.2365 100.893V103H36.9365V100.893H36.2365ZM35.5232 100.716L46.3879 93.2448L45.9913 92.668L35.1266 100.139L35.5232 100.716ZM46.5396 92.9605L46.5686 90.4424L45.8686 90.4344L45.8397 92.9524L46.5396 92.9605ZM32.8824 100.018L44.2799 92.699L43.9017 92.11L32.5042 99.4289L32.8824 100.018ZM54.4409 11.522V23.9726H55.1409V11.522H54.4409ZM3.36692 33.6724V3.44292H2.66692V33.6724H3.36692ZM32.2283 42.2574L32.3119 99.724L33.0119 99.7229L32.9283 42.2564L32.2283 42.2574ZM37.9001 29.4765L30.8185 29.061L30.7775 29.7598L37.8591 30.1753L37.9001 29.4765ZM57.2537 7.91725V36.8248H57.9537V7.91725H57.2537ZM58.9158 36.9473V7.91888H58.2158V36.9473H58.9158Z" fill="white"/>
</svg>
